[
    {
      "name": "SevenEleven",
      "src": "../images/clients/7E.png"
    },
    {
      "name": "AficanUnion",
      "src": "../images/clients/AU.png"
    },
    {
      "name": "institutFrançais",
      "src": "../images/clients/IF.png"
    },
    {
      "name": "MTN",
      "src": "../images/clients/MTN2.jpg"
    },
    {
      "name": "ministry of labour and social development",
      "src": "../images/clients/minlabor.png"
    },
    {
      "name": "CapitalRadio",
      "src": "../images/clients/capital.png"
    },
    {
      "name": "JTI",
      "src": "../images/clients/JTI.png"
    },
    {
      "name": "Pepsi",
      "src": "../images/clients/pepsi.png"
    },
    {
      "name": "Unilever",
      "src": "../images/clients/unilever.png"
    },
    {
      "name": "vero moda",
      "src": "../images/clients/vero.png"
    },
    {
      "name": "Jack & Jones",
      "src": "../images/clients/jack.png"
    },
    {
      "name": "Young Justus",
      "src": "../images/clients/justus.png"
    }
  ]